{
  "version": "v4",
  "repo": "borisyankov/DefinitelyTyped",
  "ref": "master",
  "path": "typings",
  "bundle": "typings/tsd.d.ts",
  "installed": {
    "node/node.d.ts": {
      "commit": "b3aeee64552e324581fdbe0926f4a96e981e451b"
    },
    "fs-extra/fs-extra.d.ts": {
      "commit": "b3aeee64552e324581fdbe0926f4a96e981e451b"
    },
    "object-assign/object-assign.d.ts": {
      "commit": "32029fcb4e1a3ef8968711b545d77b584435729d"
    }
  }
}
